^E:\COMPUTER SCIENCE YR1\SOFT163\X86 TASK\V3\ASSEMBLER IN VUSIAL STUDIO - STARS CW\START OF STARS CW\DEBUG\START OF STARS CW.OBJ|E:\COMPUTER SCIENCE YR1\SOFT163\X86 TASK\V3\ASSEMBLER IN VUSIAL STUDIO - STARS CW\START OF STARS CW\DEBUG\STDAFX.OBJ
/OUT:"E:\COMPUTER SCIENCE YR1\SOFT163\X86 TASK\V3\ASSEMBLER IN VUSIAL STUDIO - STARS CW\DEBUG\START OF STARS CW.EXE" /INCREMENTAL /NOLOGO KERNEL32.LIB USER32.LIB GDI32.LIB WINSPOOL.LIB COMDLG32.LIB ADVAPI32.LIB SHELL32.LIB OLE32.LIB OLEAUT32.LIB UUID.LIB ODBC32.LIB ODBCCP32.LIB /MANIFEST /MANIFESTUAC:"level='asInvoker' uiAccess='false'" /manifest:embed /DEBUG /PDB:"E:\COMPUTER SCIENCE YR1\SOFT163\X86 TASK\V3\ASSEMBLER IN VUSIAL STUDIO - STARS CW\DEBUG\START OF STARS CW.PDB" /SUBSYSTEM:CONSOLE /TLBID:1 /DYNAMICBASE /NXCOMPAT /IMPLIB:"E:\COMPUTER SCIENCE YR1\SOFT163\X86 TASK\V3\ASSEMBLER IN VUSIAL STUDIO - STARS CW\DEBUG\START OF STARS CW.LIB" /MACHINE:X86 "DEBUG\START OF STARS CW.OBJ"DEBUG\STDAFX.OBJ
^D:\UNI\YEAR2\SOFT252\SOFT252\X86\START OF STARS CW\DEBUG\START OF STARS CW.OBJ|D:\UNI\YEAR2\SOFT252\SOFT252\X86\START OF STARS CW\DEBUG\STDAFX.OBJ
/OUT:"D:\UNI\YEAR2\SOFT252\SOFT252\X86\DEBUG\START OF STARS CW.EXE" /INCREMENTAL /NOLOGO KERNEL32.LIB USER32.LIB GDI32.LIB WINSPOOL.LIB COMDLG32.LIB ADVAPI32.LIB SHELL32.LIB OLE32.LIB OLEAUT32.LIB UUID.LIB ODBC32.LIB ODBCCP32.LIB /MANIFEST /MANIFESTUAC:"level='asInvoker' uiAccess='false'" /manifest:embed /DEBUG /PDB:"D:\UNI\YEAR2\SOFT252\SOFT252\X86\DEBUG\START OF STARS CW.PDB" /SUBSYSTEM:CONSOLE /TLBID:1 /DYNAMICBASE /NXCOMPAT /IMPLIB:"D:\UNI\YEAR2\SOFT252\SOFT252\X86\DEBUG\START OF STARS CW.LIB" /MACHINE:X86 "DEBUG\START OF STARS CW.OBJ"DEBUG\STDAFX.OBJ
